%YAML 1.1
%TAG !u! tag:unity3d.com,2011:
--- !u!114 &11400000
MonoBehaviour:
  m_ObjectHideFlags: 0
  m_CorrespondingSourceObject: {fileID: 0}
  m_PrefabInstance: {fileID: 0}
  m_PrefabAsset: {fileID: 0}
  m_GameObject: {fileID: 0}
  m_Enabled: 1
  m_EditorHideFlags: 0
  m_Script: {fileID: 11500000, guid: 332f8f7a1babc4849bf68b06212759c9, type: 3}
  m_Name: ReplenishSlowmo
  m_EditorClassIdentifier: 
  Id: 28
  Text: Replenish slowmo
  Info: Replenish slowmo duration every time you succesfully grapple to an object.
  Icon: {fileID: 21300000, guid: aedf9fca88ca25341ae82eb7927dcff6, type: 3}
  Type: 1
  IsPlaceholder: 0
  IsHidden: 0
  MaxLevel: 5
  CurrentLevel: 2
  PricesForLevel: 000000002c0100008403000008070000b80b000094110000
  IncreaseValuePerLevel: 0.2
