%YAML 1.1
%TAG !u! tag:unity3d.com,2011:
--- !u!114 &11400000
MonoBehaviour:
  m_ObjectHideFlags: 0
  m_CorrespondingSourceObject: {fileID: 0}
  m_PrefabInstance: {fileID: 0}
  m_PrefabAsset: {fileID: 0}
  m_GameObject: {fileID: 0}
  m_Enabled: 1
  m_EditorHideFlags: 0
  m_Script: {fileID: 11500000, guid: f1d68d04a66abfa44bce0df234500bb9, type: 3}
  m_Name: JointFrequency
  m_EditorClassIdentifier: 
  Id: 5
  Text: Joint strength
  Info: Increases the joint strength.
  Icon: {fileID: 21300000, guid: 86426accb77122c43849802eaccfd248, type: 3}
  Type: 0
  IsPlaceholder: 0
  IsHidden: 0
  MaxLevel: 5
  CurrentLevel: 3
  PricesForLevel: 000000002c0100008403000008070000b80b000094110000
  IncreaseValuePerLevel: 0.15
