%YAML 1.1
%TAG !u! tag:unity3d.com,2011:
--- !u!114 &11400000
MonoBehaviour:
  m_ObjectHideFlags: 0
  m_CorrespondingSourceObject: {fileID: 0}
  m_PrefabInstance: {fileID: 0}
  m_PrefabAsset: {fileID: 0}
  m_GameObject: {fileID: 0}
  m_Enabled: 1
  m_EditorHideFlags: 0
  m_Script: {fileID: 11500000, guid: 0567618f0b7b686489dda62b9d0f1843, type: 3}
  m_Name: MaxMultiplier
  m_EditorClassIdentifier: 
  Id: 9
  Text: Max Multiplier
  Info: Increases the maximum currency multiplier.
  Icon: {fileID: 21300000, guid: 1b1c0d6b82edc0f47beb8fc275bdad28, type: 3}
  Type: 2
  IsPlaceholder: 0
  IsHidden: 0
  MaxLevel: 5
  CurrentLevel: 0
  PricesForLevel: 000000002c0100008403000008070000b80b000094110000
  IncreaseValuePerLevel: 1
