%YAML 1.1
%TAG !u! tag:unity3d.com,2011:
--- !u!114 &11400000
MonoBehaviour:
  m_ObjectHideFlags: 0
  m_CorrespondingSourceObject: {fileID: 0}
  m_PrefabInstance: {fileID: 0}
  m_PrefabAsset: {fileID: 0}
  m_GameObject: {fileID: 0}
  m_Enabled: 1
  m_EditorHideFlags: 0
  m_Script: {fileID: 11500000, guid: f703381d93296c34abe914ebaeeb2bff, type: 3}
  m_Name: RedEdgesProtection
  m_EditorClassIdentifier: 
  Id: 12
  Text: Red Edges
  Info: Decreases the speed at which you burn from red edges.
  Icon: {fileID: 21300000, guid: 60c2e501f31bbf74cafa7eabd1d19fdb, type: 3}
  Type: 3
  IsPlaceholder: 0
  IsHidden: 0
  MaxLevel: 1
  CurrentLevel: 0
  PricesForLevel: 00000000a00f0000
  IncreaseValuePerLevel: 0
