%YAML 1.1
%TAG !u! tag:unity3d.com,2011:
--- !u!114 &11400000
MonoBehaviour:
  m_ObjectHideFlags: 0
  m_CorrespondingSourceObject: {fileID: 0}
  m_PrefabInstance: {fileID: 0}
  m_PrefabAsset: {fileID: 0}
  m_GameObject: {fileID: 0}
  m_Enabled: 1
  m_EditorHideFlags: 0
  m_Script: {fileID: 11500000, guid: 4300029358f8ead459f084dba6663b59, type: 3}
  m_Name: 3_Anchor
  m_EditorClassIdentifier: 
  Id: 15
  Text: Anchor
  Info: AVAST, ME HEARTIES!
  Icon: {fileID: 21300000, guid: 920be0819ae205548885a2e5d894b9e7, type: 3}
  Type: 5
  Price: 2000
  IsUnlocked: 1
  IsSelected: 1
  SkinNumber: 2
